<svg width="19" height="18" viewBox="0 0 19 18" fill="none" xmlns="http://www.w3.org/2000/svg">
<path d="M17.5467 6.14863H13.5957V1.45882C13.5957 0.650858 12.9457 0 12.1516 0H6.82805C6.03354 0 5.40509 0.650858 5.40509 1.45882V6.14821H4.43161V5.42706C4.43161 5.09549 4.18107 4.81601 3.85477 4.81601H2.0152C1.68891 4.81601 1.41006 5.09549 1.41006 5.42706V6.14355C0.638022 6.14821 0 6.80161 0 7.60661V16.5365C0 17.3449 0.638439 18 1.43295 18H17.5467C18.3408 18 19 17.3449 19 16.5365V7.60703C19 6.79822 18.3408 6.14863 17.5467 6.14863ZM6.6803 1.79674C6.6803 1.46475 6.945 1.195 7.27129 1.195H11.6954C12.0221 1.195 12.2868 1.46475 12.2868 1.79674V2.33623C12.2868 2.6678 12.0221 2.93754 11.6954 2.93754H7.27129C6.945 2.93754 6.6803 2.6678 6.6803 2.33623V1.79674ZM9.49001 17.0807C6.77519 17.0807 4.56688 14.8334 4.56688 12.0724C4.56688 9.31061 6.77519 7.06331 9.49001 7.06331C12.2044 7.06331 14.4127 9.31061 14.4127 12.0724C14.4127 14.8334 12.2044 17.0807 9.49001 17.0807Z" fill="#77B0F6"/>
<path d="M9.48974 8.81982C7.72717 8.81982 6.29297 10.2786 6.29297 12.0724C6.29297 13.8662 7.72717 15.3242 9.48974 15.3242C11.2523 15.3242 12.6865 13.8666 12.6865 12.0724C12.6861 10.2786 11.2523 8.81982 9.48974 8.81982Z" fill="#77B0F6"/>
</svg>
