<svg width="18" height="19" viewBox="0 0 18 19" fill="none" xmlns="http://www.w3.org/2000/svg">
<path d="M4.60742 3.27665H8.21955L6.41349 1.36731L4.60742 3.27665Z" fill="#77B0F6"/>
<path d="M5.12028 7.03645C5.12028 7.22522 4.97551 7.37826 4.79695 7.37826C4.6184 7.37826 4.47363 7.22522 4.47363 7.03645C4.47363 6.84769 4.6184 6.69464 4.79695 6.69464C4.97551 6.69464 5.12028 6.84769 5.12028 7.03645Z" fill="#77B0F6"/>
<path d="M13.5265 7.03645C13.5265 7.22522 13.3817 7.37826 13.2032 7.37826C13.0246 7.37826 12.8799 7.22522 12.8799 7.03645C12.8799 6.84769 13.0246 6.69464 13.2032 6.69464C13.3817 6.69464 13.5265 6.84769 13.5265 7.03645Z" fill="#77B0F6"/>
<path d="M13.3928 3.27659L10.2934 0L8.16406 2.25115L9.13403 3.27659H13.3928Z" fill="#77B0F6"/>
<path d="M0 19H18L15.8354 3.96027H2.16459L0 19ZM14.4965 4.64389H15.1431C15.3217 4.64389 15.4665 4.79694 15.4665 4.9857C15.4665 5.17447 15.3217 5.32752 15.1431 5.32752H14.4965C14.3179 5.32752 14.1732 5.17447 14.1732 4.9857C14.1732 4.79694 14.3179 4.64389 14.4965 4.64389ZM14.1732 7.03658C14.1721 7.51208 13.862 7.92449 13.4241 8.03264C12.9811 10.2419 11.1362 11.8223 9 11.8223C6.86383 11.8223 5.01893 10.2419 4.57594 8.03264C4.11416 7.92048 3.79605 7.47285 3.82257 6.97265C3.84909 6.47262 4.21267 6.06538 4.68329 6.00847C5.15407 5.95156 5.59516 6.26132 5.72793 6.74233C5.86055 7.22317 5.64631 7.73522 5.22037 7.9547C5.62421 9.81764 7.1922 11.1385 9 11.1385C10.808 11.1385 12.3758 9.81764 12.7796 7.9547C12.3478 7.73305 12.1342 7.21099 12.2774 6.72648C12.4205 6.24213 12.8772 5.94121 13.3516 6.01882C13.8258 6.09643 14.1752 6.5292 14.1732 7.03658ZM2.85686 4.64389H13.2032C13.3818 4.64389 13.5265 4.79694 13.5265 4.9857C13.5265 5.17447 13.3818 5.32752 13.2032 5.32752H2.85686C2.67831 5.32752 2.53354 5.17447 2.53354 4.9857C2.53354 4.79694 2.67831 4.64389 2.85686 4.64389Z" fill="#77B0F6"/>
</svg>
