<svg width="11" height="27" viewBox="0 0 11 27" fill="none" xmlns="http://www.w3.org/2000/svg">
<path d="M0.405922 24.0042C0.0611344 24.6031 0.0799136 25.3418 0.670709 25.7862C1.17625 26.1655 2.07615 26.1162 2.42169 25.517C3.13605 24.2765 4.43144 23.3423 4.43144 23.3423C4.43144 23.3423 3.95445 22.2724 3.72872 20.2675C3.72835 20.2678 1.21869 22.592 0.405922 24.0042Z" fill="#77B0F6"/>
<path d="M10.596 13.2138C9.13004 11.8853 7.55747 10.6934 5.83653 9.73473C5.65137 9.5921 5.43954 9.48044 5.21607 9.40587C5.06658 9.34431 4.91973 9.31448 4.77851 9.31027C4.54227 9.28274 4.30565 9.29498 4.08894 9.35425C3.51692 9.51027 3.13082 9.86666 2.9111 10.3202C1.85082 11.5809 0.965194 12.9511 0.170456 14.3988C-0.618648 15.8351 1.54397 17.1203 2.33232 15.6852C2.57871 15.2359 2.8326 14.7931 3.09777 14.3587C3.3265 15.928 3.55485 17.4974 3.78283 19.0663C3.82903 19.3845 3.97776 19.6583 4.18546 19.8808C4.51748 22.1148 5.12705 24.3185 6.08818 26.346C6.78939 27.8259 8.94788 26.5322 8.25005 25.0592C7.53193 23.5446 7.05193 21.8678 6.75634 20.1764C7.40611 19.7156 7.6416 18.8858 7.51991 18.0469C7.29381 16.4974 7.06883 14.9472 6.84273 13.3973C7.52704 13.9002 8.18732 14.4393 8.82394 15.0164C10.0284 16.1043 11.8053 14.3082 10.596 13.2138Z" fill="#77B0F6"/>
<path d="M4.59033 8.74623C5.79509 8.74623 6.77173 7.75188 6.77173 6.52528C6.77173 5.29868 5.79509 4.30432 4.59033 4.30432C3.38558 4.30432 2.40894 5.29868 2.40894 6.52528C2.40894 7.75188 3.38558 8.74623 4.59033 8.74623Z" fill="#77B0F6"/>
<path fill-rule="evenodd" clip-rule="evenodd" d="M5.88415 2.20031C5.88415 2.20031 8.38129 3.43969 9.91965 4.05612L9.91957 13.6956L10.4961 13.6956C10.4961 10.5652 10.4962 3.52172 10.4962 0.391296L5.88415 2.20031Z" fill="#77B0F6"/>
</svg>
