<svg width="18" height="18" viewBox="0 0 18 18" fill="none" xmlns="http://www.w3.org/2000/svg">
<path d="M4.60736 3.1042H8.21949L6.41343 1.29535L4.60736 3.1042Z" fill="#77B0F6"/>
<path d="M5.12015 6.66611C5.12015 6.84493 4.97539 6.98993 4.79683 6.98993C4.61828 6.98993 4.47351 6.84493 4.47351 6.66611C4.47351 6.48728 4.61828 6.34229 4.79683 6.34229C4.97539 6.34229 5.12015 6.48728 5.12015 6.66611Z" fill="#77B0F6"/>
<path d="M13.5265 6.66611C13.5265 6.84493 13.3817 6.98993 13.2032 6.98993C13.0246 6.98993 12.8799 6.84493 12.8799 6.66611C12.8799 6.48728 13.0246 6.34229 13.2032 6.34229C13.3817 6.34229 13.5265 6.48728 13.5265 6.66611Z" fill="#77B0F6"/>
<path d="M13.3926 3.10414L10.2933 0L8.16388 2.13267L9.13385 3.10414H13.3926Z" fill="#77B0F6"/>
<path d="M0 18H18L15.8354 3.75183H2.16459L0 18ZM14.4965 4.39948H15.1431C15.3217 4.39948 15.4665 4.54447 15.4665 4.7233C15.4665 4.90213 15.3217 5.04712 15.1431 5.04712H14.4965C14.3179 5.04712 14.1732 4.90213 14.1732 4.7233C14.1732 4.54447 14.3179 4.39948 14.4965 4.39948ZM14.1732 6.66623C14.1721 7.1167 13.862 7.50741 13.4241 7.60987C12.9811 9.70285 11.1362 11.2001 9 11.2001C6.86383 11.2001 5.01893 9.70285 4.57594 7.60987C4.11416 7.50361 3.79605 7.07955 3.82257 6.60567C3.84909 6.13196 4.21267 5.74615 4.68329 5.69223C5.15407 5.63832 5.59516 5.93178 5.72793 6.38747C5.86055 6.843 5.64631 7.3281 5.22037 7.53603C5.62421 9.30092 7.1922 10.5523 9 10.5523C10.808 10.5523 12.3758 9.30092 12.7796 7.53603C12.3478 7.32605 12.1342 6.83146 12.2774 6.37245C12.4205 5.9136 12.8772 5.62851 13.3516 5.70204C13.8258 5.77556 14.1752 6.18556 14.1732 6.66623ZM2.85686 4.39948H13.2032C13.3818 4.39948 13.5265 4.54447 13.5265 4.7233C13.5265 4.90213 13.3818 5.04712 13.2032 5.04712H2.85686C2.67831 5.04712 2.53354 4.90213 2.53354 4.7233C2.53354 4.54447 2.67831 4.39948 2.85686 4.39948Z" fill="#77B0F6"/>
</svg>
