<svg width="23" height="14" viewBox="0 0 23 14" fill="none" xmlns="http://www.w3.org/2000/svg">
<path d="M15.0218 0.514826C14.9352 0.383896 14.6656 0.27002 14.5019 0.27002H9.88909C9.72542 0.27002 9.7198 0.386191 9.80084 0.520128L17.9555 13.878C18.0366 14.012 18.2291 14.0206 18.3851 13.9753L22.8331 12.6491C22.9895 12.6037 23.0461 12.4289 22.9594 12.2979L15.0218 0.514826Z" fill="#77B0F6"/>
<path d="M3.96541 13.341L7.90034 5.41796V13.0833C7.90034 13.7693 8.67128 13.73 8.83496 13.73H16.5035C16.6671 13.73 16.7337 13.4814 16.6527 13.3474L8.72988 0.100392C8.64884 -0.0335454 8.51767 -0.0335454 8.43667 0.100392L6.45276 3.38651C6.37172 3.52044 6.19043 3.68995 6.04727 3.76485C4.0405 4.81518 1.33418 6.21783 0.134841 6.71425C-0.0448584 6.78879 -0.0348331 7.00254 0.105143 7.13196C0.371882 7.37792 0.938665 7.94057 1.46212 8.61821C1.76657 9.01247 2.03289 9.45215 2.25113 9.88842C2.32093 10.028 2.30768 10.2513 2.22668 10.3856L0.522722 13.3474C0.44252 13.4814 0.509509 13.73 0.673143 13.73H3.53512C3.69867 13.73 3.89121 13.4787 3.96541 13.341ZM1.67705 7.23682C1.60365 7.17549 1.61208 7.09378 1.69912 7.05065C2.54346 6.63369 6.53817 4.65596 7.64887 4.0154C7.73272 3.96697 7.76318 3.99269 7.71867 4.07519L3.93215 11.0939C3.8876 11.1764 3.83668 11.1696 3.81503 11.0791C3.67262 10.4858 3.0946 8.41958 1.67705 7.23682Z" fill="#77B0F6"/>
</svg>
