<svg width="17" height="21" viewBox="0 0 17 21" fill="none" xmlns="http://www.w3.org/2000/svg">
<path d="M5.33962 19.9085C5.60996 19.5201 5.98538 19.2104 6.42551 19.0126C6.41759 18.9316 6.41362 18.8503 6.41362 18.7687C6.41494 17.8394 6.93016 16.9813 7.7659 16.5159C8.15773 16.2951 8.60201 16.1745 9.05591 16.1656C9.10666 16.054 9.16345 15.9448 9.22551 15.8388C9.24683 15.8016 9.27154 15.7678 9.29399 15.732C9.33682 15.6636 9.38021 15.5955 9.42718 15.5305C9.45661 15.49 9.48869 15.4517 9.52 15.4126C9.56528 15.3549 9.61037 15.2977 9.65904 15.2427C9.69432 15.2033 9.73129 15.1657 9.76808 15.1277C9.81751 15.0763 9.86694 15.0262 9.91919 14.979C9.95768 14.9418 9.99937 14.9073 10.0405 14.8722C10.0941 14.8265 10.1486 14.7818 10.205 14.7388C10.2482 14.7061 10.292 14.6745 10.3363 14.6436C10.3948 14.6026 10.4546 14.5635 10.5153 14.526C10.5612 14.4978 10.6072 14.4699 10.6544 14.4435C10.7174 14.4063 10.7823 14.3751 10.8476 14.3431C10.8955 14.3197 10.943 14.2959 10.9917 14.2743C11.0113 14.2658 11.0304 14.2549 11.05 14.2467V6.125H2.54999V21H4.8959C4.8959 20.9893 4.90137 20.9788 4.90326 20.9677C4.9208 20.8578 4.94552 20.7491 4.97759 20.6423C4.98249 20.6263 4.98872 20.6111 4.99381 20.5954C5.02551 20.4976 5.06324 20.4017 5.10701 20.3084C5.11512 20.2913 5.1221 20.2737 5.13021 20.2566C5.18001 20.1567 5.23623 20.06 5.29849 19.967C5.3117 19.9472 5.32566 19.928 5.33962 19.9085ZM8.73181 7.98438C8.73181 7.77901 8.9048 7.6125 9.11817 7.6125C9.33154 7.6125 9.50453 7.77901 9.50453 7.98438V13.1906C9.50453 13.396 9.33154 13.5625 9.11817 13.5625C8.9048 13.5625 8.73181 13.396 8.73181 13.1906V7.98438ZM6.41362 7.98438C6.41362 7.77901 6.58662 7.6125 6.79999 7.6125C7.01336 7.6125 7.18635 7.77901 7.18635 7.98438V15.4219C7.18635 15.6272 7.01336 15.7937 6.79999 15.7937C6.58662 15.7937 6.41362 15.6272 6.41362 15.4219V7.98438ZM4.86817 19.1406C4.86817 19.346 4.69517 19.5125 4.48181 19.5125C4.26844 19.5125 4.09544 19.346 4.09544 19.1406V7.98438C4.09544 7.77901 4.26844 7.6125 4.48181 7.6125C4.69517 7.6125 4.86817 7.77901 4.86817 7.98438V19.1406Z" fill="#77B0F6"/>
<path d="M2.50526 5.25C3.88826 5.24835 5.00895 4.0741 5.01053 2.625C5.01 2.1524 4.7276 1.73053 4.30382 1.56903C3.87987 1.40753 3.40472 1.54083 3.11463 1.90265C2.82454 2.26465 2.78137 2.77789 3.00628 3.1875C3.09803 3.36603 3.03774 3.5885 2.87015 3.68994C2.70273 3.79138 2.48866 3.7348 2.38678 3.5625C2.01089 2.87988 2.08271 2.02386 2.56625 1.42017C3.04979 0.816467 3.84195 0.594177 4.54865 0.863525C5.25553 1.13306 5.72614 1.83691 5.72632 2.625C5.72614 3.64545 5.28436 4.61078 4.52524 5.25H9.07476C8.31564 4.61078 7.87386 3.64545 7.87368 2.625C7.87386 1.84131 8.33905 1.14038 9.04016 0.867554C9.74127 0.594727 10.5303 0.807495 11.0187 1.40112C11.507 1.99475 11.5914 2.84399 11.2303 3.53027C11.1674 3.64984 11.0472 3.72418 10.9168 3.72418C10.8565 3.72418 10.7971 3.70807 10.7444 3.67731C10.5712 3.57733 10.5081 3.349 10.6037 3.16754C10.8202 2.75574 10.7693 2.24634 10.4763 1.89038C10.1832 1.53424 9.70982 1.4068 9.28919 1.5705C8.86856 1.73419 8.58947 2.15479 8.58947 2.625C8.58947 4.07483 9.71104 5.25 11.0947 5.25C12.4784 5.25 13.6 4.07483 13.6 2.625C13.6 1.17517 12.4784 0 11.0947 0H2.50526C1.12157 0 0 1.17517 0 2.625C0 4.07483 1.12157 5.25 2.50526 5.25Z" fill="#77B0F6"/>
<path d="M16.4391 20.0232C16.1157 19.7294 15.6966 19.5644 15.2603 19.5591C14.9398 19.5547 14.624 19.6383 14.3474 19.8008C14.1767 19.902 13.9566 19.845 13.8561 19.6735C13.7553 19.5021 13.8121 19.2811 13.9829 19.1801C14.3002 18.9947 14.6551 18.883 15.0209 18.8532C15.3901 17.9651 15.2918 16.9503 14.7588 16.1504C14.2259 15.3504 13.3294 14.8715 12.3709 14.875C12.0455 14.874 11.7224 14.9301 11.4163 15.0407C10.7345 15.2844 10.1691 15.7774 9.83321 16.4211C10.6136 16.6423 11.2383 17.2308 11.5076 17.9989C11.5726 18.1866 11.4741 18.3919 11.2872 18.4576C11.2492 18.4713 11.2092 18.4782 11.1687 18.4782C11.0163 18.4782 10.8803 18.3814 10.83 18.2368C10.5977 17.5707 9.99652 17.1046 9.29599 17.0476C9.29319 17.0473 9.29056 17.0464 9.28811 17.0455C9.28478 17.0455 9.28162 17.0455 9.27829 17.0455C9.23291 17.0399 9.18718 17.0371 9.14127 17.0369C8.82693 17.0346 8.51784 17.1182 8.24696 17.2786C7.69116 17.6001 7.34826 18.1945 7.34703 18.8385C7.34703 18.8481 7.34703 18.8584 7.34878 18.868C7.6046 18.8311 7.86445 18.8323 8.11992 18.8715H8.1222C8.41885 18.9212 8.70393 19.0255 8.9629 19.1793C9.13374 19.2804 9.19051 19.5014 9.08976 19.6728C8.98918 19.8443 8.76911 19.9013 8.59827 19.8001C8.41569 19.6921 8.21489 19.6189 8.00585 19.5839C7.71902 19.5359 7.42483 19.557 7.14781 19.646C6.75129 19.7748 6.41294 20.0405 6.19304 20.3962C6.17797 20.4199 6.1643 20.4444 6.15029 20.4682C6.11279 20.5336 6.0795 20.6013 6.05094 20.671C6.04113 20.694 6.03044 20.7164 6.02185 20.7398C5.99136 20.8246 5.96736 20.9115 5.95001 21H17C16.9233 20.6221 16.7265 20.2794 16.4391 20.0232Z" fill="#77B0F6"/>
</svg>
