<svg width="217" height="257" viewBox="0 0 217 257" fill="none" xmlns="http://www.w3.org/2000/svg">
<g opacity="0.36">
<mask id="mask0" mask-type="alpha" maskUnits="userSpaceOnUse" x="0" y="0" width="217" height="257">
<rect y="9.82901" width="205.384" height="246.468" transform="rotate(-2.74304 0 9.82901)" fill="url(#paint0_linear)"/>
</mask>
<g mask="url(#mask0)">
<path fill-rule="evenodd" clip-rule="evenodd" d="M69.5494 264.4L73.1494 264.3L77.1494 211.4L81.1494 210.5L81.0494 205.6L88.7494 203.2V202.9C89.3494 197.4 90.8494 183.8 91.1494 177C91.5494 168.6 91.7494 144.1 91.7494 143.9V143.7L91.6494 143.6C91.6494 143.6 89.9494 141.8 90.0494 138.7C90.1494 135.4 90.1494 127.4 90.1494 127.3V126.8H89.6494C89.4494 126.8 88.7494 126.6 88.6494 125.4C88.6494 123.6 88.4494 122.7 88.4494 122.7L88.3494 122.3H87.8494C87.1494 122.3 86.1494 122.1 86.1494 120.9C86.0494 113.5 86.2494 107.9 86.7494 104.9C87.5494 100.3 86.8494 98.9 86.7494 98.8L86.6494 98.7L86.4494 98.6C85.9494 98.4 74.6494 93.5 70.4494 93.5C69.4494 93.5 68.2494 93.6 67.0494 93.7C65.4494 93.8 63.5494 93.9 61.8494 93.9C58.7494 93.9 56.8494 93.5 55.8494 92.7C54.2494 91.4 51.6494 87.2 49.7494 84.2C48.0494 81.6 47.4494 80.6 47.0494 80.4C46.4494 80 44.9494 80 41.8494 80H41.9494C40.5494 80 38.9494 80 37.7494 79.9C34.7494 79.7 28.6494 78.3 27.5494 77.9C27.0494 77.7 26.8494 77.6 26.7494 77.5V77.1H26.2494C25.9494 77.1 25.1494 77 24.7494 76.6L25.1494 76.4L24.3494 75.9C24.0494 75.7 23.7494 75.4 23.6494 75.2V75.1C23.9494 74.7 24.2494 74.7 24.3494 74.7L25.2494 74.9L25.0494 74.4C25.1494 74.4 25.3494 74.3 25.5494 74.3C25.8494 74.3 26.1494 74.2 26.5494 74.2C27.0494 74.2 27.5494 74.2 28.0494 74.3C28.4494 74.3 28.8494 74.3 29.1494 74.3C30.1494 74.3 31.5494 74.2 31.5494 74.2L32.7494 74.1L31.7494 73.3C31.2494 72.9 30.7494 72.3 30.7494 72.1C30.7494 72.1 30.9494 72 31.6494 72C32.2494 72 32.9494 72.1 33.5494 72.2L33.9494 72.3C34.1494 72.3 34.4494 72.3 34.7494 72.3C35.1494 72.3 35.6494 72.3 36.1494 72.2C36.5494 72.2 36.9494 72.2 37.3494 72.2C37.6494 72.2 37.9494 72.2 38.0494 72.3C38.8494 72.5 41.1494 73.2 41.7494 73.8C41.9494 74 42.1494 74.2 42.3494 74.5C42.8494 75 43.2494 75.6 44.0494 75.6C44.7494 75.7 45.2494 75.7 45.3494 75.7H46.1494L45.8494 75C45.8494 75 45.8494 75 45.9494 75C46.0494 75 46.1494 75 46.2494 75C46.5494 75.1 46.9494 75.1 47.3494 75.2C48.7494 75.5 50.6494 75.9 52.6494 75.9H52.8494C54.0494 75.9 55.7494 75.8 57.5494 75.6C59.6494 75.5 61.8494 75.3 63.6494 75.3C67.0494 75.3 70.4494 75 70.4494 75H70.5494H70.6494C70.9494 74.9 73.5494 74.2 74.4494 73.5C75.0494 73.1 77.5494 72.8 80.8494 72.7C82.5494 72.7 84.8494 72.2 86.8494 71.9C87.9494 71.7 88.9494 71.5 89.6494 71.4C90.2494 71.3 90.7494 71.3 91.1494 71.3C91.5494 71.3 91.7494 71.3 91.7494 71.3H91.8494H91.9494C92.0494 71.3 93.9494 71.3 95.2494 70.8C95.5494 70.7 95.8494 70.6 96.0494 70.6C96.3494 70.6 96.5494 70.7 96.5494 70.7L96.7494 70.9L97.0494 70.8C97.0494 70.8 99.1494 70.1 99.7494 69.9H99.8494C100.049 69.9 100.249 70.1 100.349 70.1L101.049 70.8L101.149 69.8C101.149 69.7 101.749 64.5 102.049 59.4C102.049 59 102.049 58.6 102.149 58.2C102.349 53.2 102.649 45.5 109.349 45.5H109.449C112.849 45.5 114.949 47.4 115.549 50.7C116.149 54.4 116.749 62.4 116.849 64.4C116.849 66.5 117.149 69.8 117.149 69.8V70.2L117.549 70.3C117.649 70.3 126.249 71.8 133.049 73.7C134.649 74.2 136.149 74.6 137.449 74.9C141.549 76.1 143.949 76.7 145.549 76.7C146.449 76.7 146.949 76.5 147.449 76.3C148.149 76 149.049 75.6 152.049 75.6H152.549C154.249 75.6 155.549 75.7 156.949 75.8C158.049 75.9 159.149 76 160.249 76C161.549 76 162.749 75.9 164.049 75.6C166.449 75.1 167.949 74.3 168.849 73.8C168.949 73.7 169.049 73.7 169.149 73.6C169.349 74.3 169.849 74.3 170.049 74.3C170.449 74.3 170.849 74.1 171.549 73.8C171.949 73.6 172.349 73.3 172.749 72.9C173.849 72.1 175.149 71.1 176.449 71C177.649 71 178.949 70.7 180.149 70.4C181.149 70.2 182.049 70 182.849 69.9C183.149 69.9 183.449 69.9 183.749 69.9C184.049 69.9 184.249 69.9 184.349 69.9C183.649 70.7 183.649 71 183.649 71.2V71.8L184.249 71.7C184.249 71.7 188.649 71 189.549 70.9H189.649C190.149 70.9 190.249 71.3 190.249 71.3L190.449 71.7L190.849 71.6C190.849 71.6 190.949 71.6 191.149 71.6C191.549 71.6 191.549 71.8 191.549 71.9C191.649 72.3 191.349 72.5 191.149 72.5L190.549 72.6L190.749 73.2C190.849 73.4 190.849 73.7 190.849 73.8C190.449 73.9 189.449 74.1 189.149 74.2H188.849L188.749 74.5C188.749 74.5 188.549 74.9 187.649 75.2C185.749 75.9 178.049 78.6 175.749 78.6H175.149H173.549C171.649 78.6 169.849 78.7 169.049 79.7C168.649 80.3 168.449 81.2 168.249 82.2C168.049 83.4 167.849 84.7 167.149 86.1C165.749 89 163.649 92.2 161.849 92.4C161.249 92.5 145.949 94.2 140.649 95.7C135.749 97 130.749 98.2 130.749 98.3L130.349 98.4V98.8C130.349 98.9 131.649 113.1 132.149 120.6C132.349 124 132.749 128.8 133.049 133.2C133.449 138.4 133.849 143.4 133.849 144.1C133.849 144.6 133.549 145.3 133.249 146C132.749 147.1 132.249 148.3 132.249 149.6C132.249 150.8 132.549 154.4 132.849 157.8C133.049 160.5 133.249 163.1 133.249 163.8C133.249 164.9 132.049 166.2 131.549 166.6L131.349 166.8V167C131.349 167.1 132.049 178.1 132.149 182.6C132.249 186.1 133.649 196.1 134.549 201.8V202.1L143.249 204.5L143.349 209.4L147.349 210.2L152.849 262.9L156.449 262.8L157.549 275.5L67.9494 276.8L69.5494 264.4Z" fill="url(#paint1_linear)"/>
<path d="M109.749 46C112.849 46 114.849 47.7 115.349 50.8C115.949 54.3 116.549 62.4 116.649 64.5C116.649 66.7 116.849 69.8 116.949 69.9L117.049 70.7L117.849 70.8C117.949 70.8 126.549 72.3 133.249 74.2C134.849 74.7 136.349 75.1 137.649 75.4C141.749 76.6 144.249 77.3 145.949 77.3H146.049C147.049 77.3 147.549 77.1 148.049 76.8C148.749 76.5 149.649 76.1 152.549 76.1C152.749 76.1 152.849 76.1 153.049 76.1C154.749 76.1 156.049 76.2 157.349 76.3C158.449 76.4 159.549 76.5 160.649 76.5C162.049 76.5 163.249 76.4 164.549 76.1C166.949 75.6 168.449 74.8 169.349 74.3C169.649 74.7 170.049 74.9 170.549 74.9C171.049 74.9 171.549 74.7 172.349 74.3C172.749 74.1 173.149 73.8 173.649 73.4C174.649 72.6 175.849 71.7 177.049 71.6C178.349 71.6 179.649 71.3 180.849 71C181.749 70.8 182.649 70.6 183.449 70.5C183.649 70.5 183.749 70.5 183.949 70.5C183.749 70.9 183.649 71.1 183.649 71.3V72.5L184.749 72.3C184.749 72.3 189.149 71.6 190.049 71.5C190.049 71.5 190.049 71.5 190.149 71.5C190.149 71.5 190.249 71.5 190.349 71.6L190.549 72.2H190.449L190.849 73.5C190.449 73.6 189.949 73.7 189.549 73.8L188.949 73.9L188.749 74.4C188.649 74.5 188.449 74.7 187.949 74.9C186.149 75.6 178.449 78.2 176.249 78.3C176.049 78.3 175.849 78.3 175.649 78.3C175.349 78.3 175.149 78.3 174.849 78.3C174.549 78.3 174.349 78.3 174.049 78.3C171.949 78.3 170.049 78.4 169.149 79.7C168.649 80.4 168.449 81.3 168.349 82.4C168.149 83.5 167.949 84.8 167.349 86.2C165.649 89.7 163.749 92.1 162.449 92.2C161.849 92.3 146.549 94 141.249 95.5C136.349 96.8 131.349 98 131.349 98.1L130.549 98.3L130.649 99.2C130.649 99.3 131.949 113.5 132.449 121C132.649 124.4 133.049 129.3 133.349 133.6C133.749 138.8 134.149 143.7 134.149 144.5C134.149 144.9 133.849 145.5 133.549 146.2C133.049 147.3 132.549 148.6 132.549 150C132.549 151.2 132.849 154.8 133.149 158.2C133.349 160.9 133.549 163.5 133.549 164.2C133.549 165 132.549 166.2 131.949 166.6L131.549 166.9V167.4C131.549 167.5 132.249 178.5 132.349 183C132.449 186.5 133.849 196.6 134.749 202.2L134.849 202.8L135.449 203L143.549 205.2L143.649 209.4V210.2L144.449 210.4L147.749 211.1L153.149 263L153.249 263.9H154.149H156.849L157.849 275.6L116.949 275.9L69.3495 276.6L69.9495 264.9H72.6495H73.5494L73.6495 264L77.5494 211.9L80.7495 211.1L81.5494 210.9V210.1L81.4495 205.9L88.4495 203.7L89.0494 203.5L89.1495 202.8C89.7495 197.3 91.2494 183.6 91.5494 176.9C91.9494 168.5 92.1495 144 92.1495 143.8V143.4L91.8495 143.1C91.7495 143 90.3495 141.4 90.3495 138.6C90.4495 135.3 90.4495 127.3 90.4495 127.2V126.3L89.5494 126.2C89.3494 126.2 89.0494 126 89.0494 125.3C89.0494 123.4 88.8495 122.5 88.8495 122.5L88.6495 121.6L87.7495 121.7H87.6495C86.5495 121.7 86.5494 121 86.5494 120.8C86.4494 113.5 86.6495 107.8 87.1495 104.9C87.9495 100.3 87.2494 98.8 87.0494 98.4L86.8495 98.1L86.5494 98C86.0494 97.8 74.6495 92.9 70.3495 92.9H70.2495C69.3495 92.9 68.1495 93 66.9495 93.1C65.3495 93.2 63.4495 93.3 61.7495 93.3C58.8495 93.3 56.9494 92.9 56.0494 92.2C54.5494 91 51.8494 86.6 50.0494 83.8C48.2494 80.9 47.6495 80.1 47.2495 79.8C46.5495 79.4 45.1495 79.3 41.7495 79.3H41.9495C40.5495 79.3 38.9495 79.3 37.7495 79.2C34.8495 79 28.7495 77.6 27.6495 77.2C27.4495 77.1 27.3495 77.1 27.2495 77.1V76.5L26.3495 76.4C26.2495 76.4 26.1495 76.4 25.9495 76.3L26.1495 76.2L24.6495 75.3C24.5495 75.2 24.3495 75.1 24.2495 75C24.3495 74.9 24.3495 74.9 24.3495 74.9L26.0494 75.3L25.7495 74.4C25.9495 74.4 26.2494 74.4 26.5494 74.4C27.0494 74.4 27.4495 74.4 27.9495 74.5C28.3495 74.5 28.7494 74.5 29.0494 74.5H29.1495C30.1495 74.5 31.4494 74.4 31.5494 74.4L34.0494 74.2L32.0494 72.6C31.8494 72.5 31.7495 72.3 31.6495 72.2H31.7495C32.2495 72.2 32.9494 72.3 33.5494 72.4L33.9495 72.5C34.2495 72.5 34.4495 72.5 34.8495 72.5C35.3495 72.5 35.7495 72.5 36.2495 72.4C36.6495 72.4 37.0495 72.4 37.4495 72.4C37.8495 72.4 38.0494 72.4 38.0494 72.5C40.4494 73.2 41.3494 73.6 41.5494 73.8C41.7494 74 41.9495 74.2 42.1495 74.4C42.6495 74.9 43.2495 75.6 44.1495 75.7C44.8495 75.8 45.3494 75.8 45.5494 75.8H45.6495H47.1495L46.9495 75.2C47.1495 75.2 47.3494 75.3 47.5494 75.3C48.9494 75.6 50.9495 76 52.9495 76H53.1495C54.3495 76 56.0495 75.9 57.8495 75.7C59.9495 75.6 62.1495 75.4 63.9495 75.4C67.4495 75.4 70.7495 75.1 70.7495 75.1H70.8495H70.9495C71.4495 75 73.9495 74.2 74.8495 73.5C75.1495 73.3 77.1495 72.9 80.9495 72.8C82.6495 72.8 85.0494 72.3 87.0494 71.9C88.1494 71.7 89.1495 71.5 89.8495 71.4C90.4495 71.3 90.9495 71.3 91.2495 71.3C91.4495 71.3 91.5495 71.3 91.6495 71.3H91.7495H92.0494C92.1494 71.3 94.0495 71.3 95.4495 70.8C95.6495 70.7 95.9494 70.7 96.0494 70.7C96.1494 70.7 96.2495 70.7 96.2495 70.7L96.6495 71.1L97.2495 70.9C97.2495 70.9 99.3495 70.2 99.8495 70C99.8495 70 99.9494 70.1 100.049 70.1L101.549 71.5L101.749 69.5C101.749 69.4 102.349 64.1 102.649 59.1C102.649 58.7 102.649 58.3 102.749 57.9C103.049 51.5 103.749 45.7 109.449 45.7L109.749 46ZM109.749 45H109.649C101.949 45.1 102.149 54.3 101.949 59.4C101.649 64.5 101.049 69.8 101.049 69.8C101.049 69.8 100.649 69.4 100.249 69.4C100.149 69.4 100.049 69.4 99.9495 69.4C99.3495 69.6 97.2495 70.3 97.2495 70.3C97.2495 70.3 97.0495 70.1 96.4495 70.1C96.1495 70.1 95.8495 70.1 95.4495 70.3C94.1495 70.7 92.3495 70.8 92.3495 70.8C92.3495 70.8 92.1494 70.7 91.5494 70.7C91.2494 70.7 90.7494 70.7 90.0494 70.8C88.1494 71 83.8495 72.1 81.2495 72.1C78.6495 72.1 75.4494 72.4 74.5494 73C73.7494 73.6 70.9495 74.4 70.9495 74.4C70.9495 74.4 67.6495 74.6 64.1495 74.7C60.6495 74.8 55.9495 75.2 53.3495 75.3C53.2495 75.3 53.2495 75.3 53.1495 75.3C50.5495 75.3 48.1495 74.6 46.7495 74.4C46.5495 74.4 46.4495 74.4 46.3495 74.4C45.4495 74.4 45.8495 75.1 45.8495 75.1C45.8495 75.1 45.8495 75.1 45.7495 75.1C45.5495 75.1 45.1495 75.1 44.4495 75C43.6495 74.9 43.1495 74 42.3495 73.3C41.5495 72.6 39.2495 72 38.4495 71.7C38.2495 71.6 37.9494 71.6 37.5494 71.6C36.7494 71.6 35.7495 71.7 34.9495 71.7C34.6495 71.7 34.4495 71.7 34.1495 71.7C33.4495 71.6 32.5495 71.5 31.8495 71.5C31.2495 71.5 30.7494 71.6 30.5494 71.9C30.0494 72.5 31.5494 73.7 31.5494 73.7C31.5494 73.7 30.1495 73.8 29.2495 73.8H29.1495C28.4495 73.8 27.4494 73.7 26.5494 73.7C26.1494 73.7 25.7495 73.7 25.4495 73.8C24.3495 74 24.4495 74.2 24.4495 74.2C24.4495 74.2 24.3495 74.2 24.2495 74.2C24.0495 74.2 23.5495 74.3 23.1495 74.8C22.5495 75.6 23.9495 76.4 23.9495 76.4C23.9495 76.4 23.6495 76.6 24.2495 77.1C24.9495 77.6 26.0494 77.7 26.0494 77.7C26.0494 77.7 26.0495 78.1 27.1495 78.4C28.2495 78.7 34.4495 80.2 37.4495 80.4C38.6495 80.5 40.1495 80.5 41.6495 80.5C41.7495 80.5 41.8495 80.5 41.8495 80.5C44.1495 80.5 46.2495 80.5 46.7495 80.8C47.5495 81.3 52.8494 91 55.5494 93.1C56.7494 94.1 59.2495 94.4 61.8495 94.4C64.8495 94.4 68.2495 94 70.3495 94C70.3495 94 70.3495 94 70.4495 94C74.5495 94 86.2495 99 86.2495 99C86.2495 99 86.9495 100.2 86.1495 104.8C85.3495 109.4 85.5494 118.8 85.5494 120.9C85.5494 122.7 87.2495 122.8 87.6495 122.8C87.7495 122.8 87.7495 122.8 87.7495 122.8C87.7495 122.8 87.9495 123.6 87.9495 125.4C87.9495 127.2 89.3495 127.3 89.3495 127.3C89.3495 127.3 89.3495 135.3 89.2495 138.6C89.1495 141.9 90.9495 143.8 90.9495 143.8C90.9495 143.8 90.7495 168.4 90.3495 176.9C89.9495 183.7 88.4495 197.7 87.9495 202.7L80.2495 205.1L80.3495 210L76.4495 210.9L72.4495 263.7L68.8495 263.8L68.0494 277.5L116.949 276.9L158.949 276.3L157.749 262.6L154.149 262.7L148.649 210L144.649 209.2L144.549 204.3L135.749 201.9C135.149 197.8 133.349 186.5 133.349 182.8C133.249 178.2 132.549 167.2 132.549 167.2C132.549 167.2 134.449 165.5 134.449 164C134.449 162.5 133.449 152 133.449 149.8C133.449 147.6 135.049 145.6 135.049 144.2C135.049 142.8 133.849 128.3 133.349 120.7C132.849 113.1 131.549 98.9 131.549 98.9C131.549 98.9 136.549 97.7 141.549 96.3C146.449 95 160.549 93.3 162.649 93.1C164.749 92.9 167.049 89.3 168.349 86.5C169.649 83.7 169.349 81.3 170.149 80.2C170.749 79.4 172.349 79.3 174.149 79.3C174.649 79.3 175.149 79.3 175.749 79.3C175.949 79.3 176.149 79.3 176.349 79.3C178.849 79.3 187.249 76.3 188.349 75.9C189.449 75.5 189.749 74.9 189.749 74.9C189.749 74.9 191.149 74.7 191.649 74.5C192.149 74.3 191.849 73.3 191.849 73.3C191.849 73.3 192.749 73.2 192.649 72.1C192.549 71.5 192.049 71.3 191.749 71.3C191.549 71.3 191.349 71.4 191.349 71.4C191.349 71.4 191.049 70.7 190.249 70.7C190.149 70.7 190.149 70.7 190.049 70.7C189.149 70.8 184.749 71.5 184.749 71.5C184.749 71.5 184.749 71.3 185.349 70.5C185.849 69.9 185.549 69.6 184.349 69.6C184.049 69.6 183.749 69.6 183.449 69.6C181.549 69.7 179.249 70.7 177.049 70.7C174.849 70.7 172.949 72.9 171.849 73.5C171.349 73.8 170.849 74 170.549 74C170.249 74 170.049 73.8 170.049 73.4C170.049 73.2 169.949 73.2 169.849 73.2C169.349 73.2 167.749 74.5 164.249 75.3C162.849 75.6 161.649 75.7 160.549 75.7C158.249 75.7 156.049 75.3 152.849 75.3C152.649 75.3 152.549 75.3 152.349 75.3C147.349 75.4 147.849 76.4 145.849 76.5C145.849 76.5 145.849 76.5 145.749 76.5C143.749 76.5 140.149 75.3 133.349 73.4C126.449 71.5 117.849 70 117.849 70C117.849 70 117.649 66.8 117.549 64.6C117.549 62.4 116.849 54.4 116.249 50.8C115.749 47.2 113.449 45 109.749 45Z" fill="#457FC7"/>
</g>
</g>
<defs>
<linearGradient id="paint0_linear" x1="102.692" y1="9.82901" x2="102.692" y2="256.297" gradientUnits="userSpaceOnUse">
<stop stop-color="#C4C4C4"/>
<stop offset="1" stop-color="#C4C4C4" stop-opacity="0"/>
</linearGradient>
<linearGradient id="paint1_linear" x1="23.6494" y1="161.141" x2="191.582" y2="161.141" gradientUnits="userSpaceOnUse">
<stop stop-color="white"/>
<stop offset="1" stop-color="#C8E1FF"/>
</linearGradient>
</defs>
</svg>
