<svg width="87" height="81" viewBox="0 0 87 81" fill="none" xmlns="http://www.w3.org/2000/svg">
<path d="M14.7321 38.7698C23.7224 34.183 23.3145 13.468 30.7523 6.13086C39.3344 -2.90352 48.3429 1.31583 54.522 6.13086C60.7012 10.9459 60.9615 13.6973 75.3795 34.3331L75.4491 34.4328C83.6793 46.212 92.8042 59.2718 80.6803 71.4776C68.5222 83.7179 30.7523 78.0123 12.5582 71.4776C-5.63595 64.9429 -3.3209 47.9805 14.7321 38.7698Z" fill="#FAF3FD"/>
<path fill-rule="evenodd" clip-rule="evenodd" d="M47.5104 25.3512C47.5104 20.437 51.682 16.5464 56.7102 16.5464C61.7384 16.5464 65.91 20.437 65.91 25.3512V29.201C65.91 33.0315 63.3679 36.2465 59.8712 37.472V39.5463C60.8204 39.8526 61.8699 40.1002 62.9834 40.3615L63.0249 40.3712C64.38 40.6892 65.8279 41.0289 67.1343 41.5213C68.4561 42.0195 69.7353 42.7096 70.6837 43.7919C71.657 44.9025 72.2058 46.3388 72.2058 48.1683V56.2496H69.9952V48.1683C69.9952 46.8188 69.6059 45.9161 69.0212 45.2488C68.4115 44.5531 67.5127 44.0262 66.3546 43.5898C65.1944 43.1525 63.8769 42.8417 62.4784 42.5136L62.4415 42.5049C61.0864 42.1869 59.6502 41.85 58.3722 41.3626L57.6607 41.0914V35.7863L58.4989 35.5776C61.5275 34.8234 63.6995 32.224 63.6995 29.201V25.3512C63.6995 21.7608 60.623 18.7569 56.7102 18.7569C52.7974 18.7569 49.7209 21.7608 49.7209 25.3512V29.201C49.7209 32.224 51.8929 34.8234 54.9215 35.5776L55.7597 35.7863V41.0914L55.0482 41.3626C53.7701 41.85 52.334 42.1869 50.9789 42.5049L50.942 42.5136C49.5435 42.8417 48.2259 43.1525 47.0657 43.5898C45.9077 44.0262 45.0088 44.5531 44.3992 45.2488C43.8144 45.9161 43.4252 46.8188 43.4252 48.1683V56.2496H41.2146V48.1683C41.2146 46.3388 41.7634 44.9025 42.7367 43.7919C43.6851 42.7096 44.9643 42.0195 46.2861 41.5213C47.5925 41.0289 49.0404 40.6892 50.3955 40.3712L50.437 40.3615C51.5504 40.1002 52.6 39.8526 53.5491 39.5463V37.472C50.0525 36.2465 47.5104 33.0315 47.5104 29.201V25.3512Z" fill="#77B0F6"/>
<path fill-rule="evenodd" clip-rule="evenodd" d="M15.1322 49.6217C15.1322 44.7074 19.3038 40.8168 24.332 40.8168C29.3602 40.8168 33.5318 44.7074 33.5318 49.6217V53.4715C33.5318 57.3019 30.9897 60.5169 27.493 61.7424V63.8167C28.4422 64.123 29.4918 64.3706 30.6052 64.6319L30.6467 64.6416C32.0018 64.9596 33.4498 65.2993 34.7561 65.7917C36.0779 66.2899 37.3571 66.98 38.3055 68.0623C39.2788 69.173 39.8276 70.6093 39.8276 72.4387V80.52H37.617V72.4387C37.617 71.0893 37.2278 70.1865 36.643 69.5192C36.0334 68.8235 35.1345 68.2967 33.9765 67.8602C32.8163 67.4229 31.4987 67.1122 30.1002 66.784L30.0633 66.7754C28.7082 66.4574 27.2721 66.1204 25.994 65.6331L25.2825 65.3618V60.0567L26.1207 59.848C29.1493 59.0938 31.3213 56.4944 31.3213 53.4715V49.6217C31.3213 46.0312 28.2448 43.0274 24.332 43.0274C20.4192 43.0274 17.3427 46.0312 17.3427 49.6217V53.4715C17.3427 56.4944 19.5147 59.0938 22.5433 59.848L23.3815 60.0567V65.3618L22.67 65.6331C21.392 66.1204 19.9558 66.4574 18.6007 66.7754L18.5638 66.784C17.1653 67.1122 15.8478 67.4229 14.6876 67.8602C13.5295 68.2967 12.6307 68.8235 12.021 69.5192C11.4363 70.1865 11.047 71.0893 11.047 72.4387V80.52H8.83643V72.4387C8.83643 70.6093 9.38521 69.173 10.3585 68.0623C11.3069 66.98 12.5861 66.2899 13.9079 65.7917C15.2143 65.2993 16.6622 64.9596 18.0174 64.6416L18.0588 64.6319C19.1723 64.3706 20.2218 64.123 21.171 63.8167V61.7424C17.6743 60.5169 15.1322 57.3019 15.1322 53.4715V49.6217Z" fill="#77B0F6"/>
<path fill-rule="evenodd" clip-rule="evenodd" d="M14 23.0328C14 20.9399 15.4675 19.2432 17.2777 19.2432H44.7849V21.7696H17.2777C16.6743 21.7696 16.1852 22.3351 16.1852 23.0328V33.1382C16.1852 33.8358 16.6743 34.4013 17.2777 34.4013H45.6847V36.9277H17.2777C15.4675 36.9277 14 35.2311 14 33.1382V23.0328ZM44.7849 29.3486H30.9476V26.8223H44.7849V29.3486Z" fill="#77B0F6"/>
<path d="M58.0552 47.8243L58.5905 48.1636L59.1259 47.8243C60.6655 46.8484 62.7303 46.8761 63.9456 48.3521C64.7062 49.276 64.6351 51.1422 63.4208 52.1683L58.5905 56.2503L53.7602 52.1683C52.5333 51.1314 52.3762 49.3498 53.1896 48.3461C54.3951 46.8584 56.4991 46.838 58.0552 47.8243Z" stroke="#77B0F6" stroke-width="2"/>
<path d="M23.0769 25.2122L23.6043 25.5397L24.1318 25.2122C25.4144 24.4159 27.1073 24.4561 28.0895 25.6246C28.6764 26.3229 28.6373 27.7792 27.6592 28.5888L23.6043 31.9453L19.5495 28.5888C18.5538 27.7646 18.4526 26.3777 19.0806 25.6186C20.0536 24.4425 21.7789 24.4064 23.0769 25.2122Z" stroke="#77B0F6" stroke-width="2"/>
</svg>
