<svg width="21" height="25" viewBox="0 0 21 25" fill="none" xmlns="http://www.w3.org/2000/svg">
<path d="M7.11138 23.5695C7.42943 23.1256 7.8711 22.7716 8.38891 22.5456C8.37958 22.453 8.37492 22.3601 8.37492 22.2669C8.37648 21.2048 8.98261 20.2241 9.96583 19.6922C10.4268 19.4399 10.9495 19.3021 11.4835 19.2919C11.5432 19.1643 11.61 19.0396 11.683 18.9184C11.7081 18.8758 11.7372 18.8372 11.7636 18.7963C11.814 18.7181 11.865 18.6403 11.9203 18.566C11.9549 18.5197 11.9926 18.4759 12.0295 18.4313C12.0828 18.3653 12.1358 18.3 12.1931 18.2371C12.2346 18.192 12.2781 18.1491 12.3213 18.1057C12.3795 18.047 12.4376 17.9897 12.4991 17.9358C12.5444 17.8932 12.5935 17.8538 12.6418 17.8137C12.7049 17.7614 12.769 17.7104 12.8354 17.6612C12.8862 17.6239 12.9377 17.5877 12.9898 17.5525C13.0586 17.5056 13.129 17.4609 13.2005 17.418C13.2544 17.3858 13.3086 17.3539 13.364 17.3238C13.4382 17.2812 13.5145 17.2455 13.5913 17.209C13.6477 17.1823 13.7036 17.1551 13.7609 17.1304C13.784 17.1206 13.8064 17.1082 13.8295 17.0988V7.81689H3.82947V24.8169H6.58937C6.58937 24.8047 6.5958 24.7926 6.59802 24.78C6.61866 24.6544 6.64774 24.5301 6.68547 24.4081C6.69124 24.3898 6.69856 24.3724 6.70456 24.3545C6.74184 24.2427 6.78623 24.1331 6.83772 24.0265C6.84727 24.0069 6.85548 23.9868 6.86502 23.9673C6.92362 23.8532 6.98976 23.7426 7.063 23.6363C7.07854 23.6137 7.09496 23.5917 7.11138 23.5695ZM11.1022 9.94189C11.1022 9.70719 11.3057 9.51689 11.5567 9.51689C11.8078 9.51689 12.0113 9.70719 12.0113 9.94189V15.8919C12.0113 16.1266 11.8078 16.3169 11.5567 16.3169C11.3057 16.3169 11.1022 16.1266 11.1022 15.8919V9.94189ZM8.37492 9.94189C8.37492 9.70719 8.57845 9.51689 8.82947 9.51689C9.08049 9.51689 9.28401 9.70719 9.28401 9.94189V18.4419C9.28401 18.6766 9.08049 18.8669 8.82947 18.8669C8.57845 18.8669 8.37492 18.6766 8.37492 18.4419V9.94189ZM6.55674 22.6919C6.55674 22.9266 6.35322 23.1169 6.1022 23.1169C5.85117 23.1169 5.64765 22.9266 5.64765 22.6919V9.94189C5.64765 9.70719 5.85117 9.51689 6.1022 9.51689C6.35322 9.51689 6.55674 9.70719 6.55674 9.94189V22.6919Z" fill="#77B0F6"/>
<path d="M3.77684 6.81689C5.40389 6.81501 6.72235 5.47301 6.7242 3.81689C6.72359 3.27679 6.39135 2.79464 5.89279 2.61007C5.39402 2.4255 4.83502 2.57785 4.49374 2.99135C4.15245 3.40506 4.10167 3.99163 4.36627 4.45975C4.4742 4.66378 4.40328 4.91804 4.20611 5.03397C4.00916 5.1499 3.7573 5.08524 3.63744 4.88832C3.19522 4.10819 3.27971 3.12988 3.84859 2.43994C4.41746 1.75 5.34941 1.49595 6.18082 1.80378C7.01244 2.11182 7.5661 2.91622 7.56631 3.81689C7.5661 4.98312 7.04637 6.08636 6.15328 6.81689H11.5057C10.6126 6.08636 10.0928 4.98312 10.0926 3.81689C10.0928 2.92125 10.6401 2.12019 11.465 1.80838C12.2898 1.49658 13.218 1.73975 13.7927 2.41818C14.3671 3.09661 14.4664 4.06717 14.0416 4.85149C13.9676 4.98814 13.8262 5.0731 13.6728 5.0731C13.6019 5.0731 13.532 5.05469 13.4699 5.01953C13.2661 4.90527 13.1919 4.64432 13.3044 4.43694C13.5591 3.96631 13.4993 3.38414 13.1545 2.97733C12.8097 2.57031 12.2528 2.42467 11.7579 2.61175C11.2631 2.79883 10.9347 3.27951 10.9347 3.81689C10.9347 5.47384 12.2542 6.81689 13.8821 6.81689C15.51 6.81689 16.8295 5.47384 16.8295 3.81689C16.8295 2.15995 15.51 0.816895 13.8821 0.816895H3.77684C2.14896 0.816895 0.829468 2.15995 0.829468 3.81689C0.829468 5.47384 2.14896 6.81689 3.77684 6.81689Z" fill="#77B0F6"/>
<path d="M20.1696 23.7006C19.7891 23.3648 19.296 23.1762 18.7827 23.1701C18.4057 23.1651 18.0342 23.2606 17.7087 23.4464C17.5079 23.562 17.249 23.4969 17.1307 23.3008C17.0122 23.105 17.079 22.8525 17.2799 22.737C17.6533 22.5251 18.0707 22.3974 18.5011 22.3635C18.9355 21.3485 18.8198 20.1887 18.1927 19.2745C17.5659 18.3602 16.511 17.8129 15.3835 17.8169C15.0007 17.8157 14.6205 17.8799 14.2604 18.0063C13.4583 18.2848 12.7931 18.8482 12.3979 19.5839C13.3161 19.8366 14.051 20.5092 14.3678 21.3871C14.4443 21.6016 14.3284 21.8363 14.1085 21.9113C14.0638 21.9269 14.0168 21.9348 13.9691 21.9348C13.7898 21.9348 13.6298 21.8242 13.5707 21.6589C13.2973 20.8977 12.5901 20.3651 11.7659 20.2999C11.7626 20.2995 11.7595 20.2985 11.7566 20.2975C11.7527 20.2975 11.749 20.2975 11.7451 20.2975C11.6917 20.2911 11.6379 20.2878 11.5839 20.2876C11.2141 20.285 10.8504 20.3805 10.5318 20.5639C9.87788 20.9313 9.47446 21.6107 9.47302 22.3466C9.47302 22.3576 9.47302 22.3693 9.47508 22.3804C9.77605 22.3381 10.0818 22.3395 10.3823 22.3844H10.385C10.734 22.4411 11.0694 22.5603 11.374 22.736C11.575 22.8517 11.6418 23.1042 11.5233 23.3C11.405 23.4961 11.1461 23.5612 10.9451 23.4456C10.7303 23.3222 10.494 23.2385 10.2481 23.1985C9.91066 23.1436 9.56455 23.1677 9.23864 23.2695C8.77215 23.4167 8.37409 23.7203 8.11538 24.1268C8.09766 24.154 8.08158 24.1819 8.06509 24.2091C8.02097 24.2839 7.98181 24.3613 7.9482 24.4409C7.93666 24.4672 7.92409 24.4928 7.91399 24.5195C7.87812 24.6164 7.84988 24.7158 7.82947 24.8169H20.8295C20.7392 24.385 20.5077 23.9933 20.1696 23.7006Z" fill="#77B0F6"/>
</svg>
