<svg width="12" height="21" viewBox="0 0 12 21" fill="none" xmlns="http://www.w3.org/2000/svg">
<path d="M10.7092 1.25488L1.16602 10.6916L10.7092 20.1283" stroke="#72A5E3" stroke-width="1.5"/>
</svg>
